/Users/ashwinsaumyasrivastava/Downloads/java-test/tuple/src/main/java/com/eclipseoptions/javatest/tuple/api/Tuple.java
/Users/ashwinsaumyasrivastava/Downloads/java-test/tuple/src/main/java/com/eclipseoptions/javatest/tuple/api/TupleFactoryImpl.java
/Users/ashwinsaumyasrivastava/Downloads/java-test/tuple/src/main/java/com/eclipseoptions/javatest/tuple/api/TupleFactory.java
/Users/ashwinsaumyasrivastava/Downloads/java-test/tuple/src/main/java/com/eclipseoptions/javatest/tuple/api/TupleDemo.java
/Users/ashwinsaumyasrivastava/Downloads/java-test/tuple/src/main/java/com/eclipseoptions/javatest/tuple/api/TupleImpl.java
